Project 1
…
bigboy3

## # A tibble: 50 x 3
##      Max   Min Daily_Average
##    <dbl> <dbl>         <dbl>
##  1    69    41          55  
##  2    81    51          66  
##  3    77    39          58  
##  4    83    64          73.5
##  5    64    38          51  
##  6    61    38          49.5
##  7    50    28          39  
##  8    72    51          61.5
##  9    78    36          57  
## 10    71    28          49.5
## # … with 40 more rows
…
